<svg xmlns="http://www.w3.org/2000/svg" width="16" height="16" viewBox="0 0 16 16">
  <g fill="none" fill-rule="evenodd">
    <circle cx="8" cy="8" r="2" fill="#000000"/>
    <circle cx="14" cy="8" r="2" fill="#000000"/>
    <circle cx="2" cy="8" r="2" fill="#000000"/>
  </g>
</svg>
