{
  "orientation" : 0,
  "updateDelay" : 0.29999999999999999,
  "designModeSelected" : 0,
  "cachedDeviceHeight" : 0,
  "contentScale" : 1,
  "cachedDeviceWidth" : 0,
  "deviceType" : "fullscreen",
  "sharedPrototype" : 0,
  "propertyPanelToggleStates" : {

  },
  "projectId" : "337177AB-A355-49C0-BC4C-8DDE96B76EDD",
  "deviceOrientation" : 0,
  "selectedHand" : "",
  "showBezel" : 0,
  "foldedCodeRanges" : [

  ],
  "deviceScale" : 1
}