{
  "_class": "artboard",
  "backgroundColor": {
    "_class": "color",
    "alpha": 1,
    "blue": 1,
    "green": 1,
    "red": 1
  },
  "do_objectID": "D759589B-6CF0-42FD-8C4E-ECA96D905ABD",
  "exportOptions": {
    "_class": "exportOptions",
    "exportFormats": [
    ],
    "includedLayerIds": [
    ],
    "layerOptions": 0,
    "shouldTrim": false
  },
  "frame": {
    "_class": "rect",
    "constrainProportions": false,
    "height": 800,
    "width": 1500,
    "x": 3368,
    "y": 861
  },
  "hasBackgroundColor": false,
  "hasClickThrough": true,
  "horizontalRulerData": {
    "_class": "rulerData",
    "base": 0,
    "guides": [
    ]
  },
  "includeBackgroundColorInExport": true,
  "includeInCloudUpload": true,
  "isFlippedHorizontal": false,
  "isFlippedVertical": false,
  "isLocked": false,
  "isVisible": true,
  "layerListExpandedType": 2,
  "layers": [
    {
      "class": "group",
      "id": "B2E20CDF-FB7F-49F5-9D7D-DA350C92A142"
    },
    {
      "class": "group",
      "id": "9981DE7C-909C-47C8-998D-F20993260224"
    },
    {
      "class": "group",
      "id": "C342326E-C60E-49B4-96D6-33B6EA968D20"
    },
    {
      "class": "group",
      "id": "453C1388-A24D-4844-95E3-0D259BAC6616"
    }
  ],
  "name": "Artboard Copy 2",
  "nameIsFixed": false,
  "resizesContent": false,
  "resizingConstraint": 63,
  "resizingType": 0,
  "rotation": 0,
  "shouldBreakMaskChain": false,
  "style": {
    "_class": "style",
    "endDecorationType": 0,
    "miterLimit": 10,
    "startDecorationType": 0
  },
  "verticalRulerData": {
    "_class": "rulerData",
    "base": 0,
    "guides": [
      112
    ]
  }
}