{
  "_class": "group",
  "do_objectID": "FD2139AE-AF45-4C63-B4C0-4F40842183B3",
  "exportOptions": {
    "_class": "exportOptions",
    "exportFormats": [
    ],
    "includedLayerIds": [
    ],
    "layerOptions": 0,
    "shouldTrim": false
  },
  "frame": {
    "_class": "rect",
    "constrainProportions": false,
    "height": 24,
    "width": 33,
    "x": 165,
    "y": 0
  },
  "hasClickThrough": false,
  "isFlippedHorizontal": true,
  "isFlippedVertical": false,
  "isLocked": false,
  "isVisible": false,
  "layerListExpandedType": 0,
  "layers": [
    {
      "class": "shapeGroup",
      "id": "07A71EF3-F9B5-414E-AF35-162730965CF4"
    },
    {
      "class": "shapeGroup",
      "id": "4E2B7DC2-F504-491C-B64C-A9EA922674AA"
    },
    {
      "class": "shapeGroup",
      "id": "77D9A6AE-F784-40B1-91CB-0FFFDABD74BF"
    },
    {
      "class": "shapeGroup",
      "id": "6274D18B-DAA7-4161-A200-5D63D187F4E8"
    },
    {
      "class": "shapeGroup",
      "id": "06340D43-1A36-4BFC-BA7D-12CBCC7D322C"
    }
  ],
  "name": "Group Copy",
  "nameIsFixed": false,
  "resizingConstraint": 63,
  "resizingType": 0,
  "rotation": 0,
  "shouldBreakMaskChain": false,
  "style": {
    "_class": "style",
    "endDecorationType": 0,
    "miterLimit": 10,
    "startDecorationType": 0
  }
}